Library\Bee\artifacts\mvdfrm\Unity.XR.Management.ref.dll_404BC0C35449934F.mvfrm
Library\Bee\artifacts\mvdfrm\UnityEditor.UI.ref.dll_4C98D3F7040CD4F5.mvfrm
Library\Bee\artifacts\mvdfrm\UnityEngine.UI.ref.dll_08FEAA520A2EFD60.mvfrm
Library\Bee\artifacts\mvdfrm\UnityEditor.Graphs.dll_7A35A064E58C0EAE.mvfrm
Library\Bee\artifacts\mvdfrm\UnityEditor.CoreModule.dll_1C7DD1A460BD007C.mvfrm
Library\Bee\artifacts\mvdfrm\UnityEditor.DeviceSimulatorModule.dll_D6A8E06437451A05.mvfrm
Library\Bee\artifacts\mvdfrm\UnityEditor.DiagnosticsModule.dll_32A8E4E8206BC313.mvfrm
Library\Bee\artifacts\mvdfrm\UnityEditor.dll_B2A3A89691FD4059.mvfrm
Library\Bee\artifacts\mvdfrm\UnityEditor.EditorToolbarModule.dll_85B0503CB664B935.mvfrm
Library\Bee\artifacts\mvdfrm\UnityEditor.GraphViewModule.dll_A09350D68E0EC28A.mvfrm
Library\Bee\artifacts\mvdfrm\UnityEditor.PresetsUIModule.dll_5BF989B890671A8F.mvfrm
Library\Bee\artifacts\mvdfrm\UnityEditor.QuickSearchModule.dll_BDB865F57942BF6C.mvfrm
Library\Bee\artifacts\mvdfrm\UnityEditor.SceneTemplateModule.dll_A94FC0FAB551636D.mvfrm
Library\Bee\artifacts\mvdfrm\UnityEditor.SceneViewModule.dll_DF4333DE83318F98.mvfrm
Library\Bee\artifacts\mvdfrm\UnityEditor.TextCoreFontEngineModule.dll_C0C1D2A78D82167A.mvfrm
Library\Bee\artifacts\mvdfrm\UnityEditor.TextCoreTextEngineModule.dll_08AA09191D05CF98.mvfrm
Library\Bee\artifacts\mvdfrm\UnityEditor.UIBuilderModule.dll_F51BFDF300C73BBE.mvfrm
Library\Bee\artifacts\mvdfrm\UnityEditor.UIElementsModule.dll_85BC931F016C9638.mvfrm
Library\Bee\artifacts\mvdfrm\UnityEditor.UIElementsSamplesModule.dll_09EA6D398F97D6B5.mvfrm
Library\Bee\artifacts\mvdfrm\UnityEditor.UnityConnectModule.dll_425EF28B8865ED32.mvfrm
Library\Bee\artifacts\mvdfrm\UnityEngine.AccessibilityModule.dll_DBF52C91B5C78B0A.mvfrm
Library\Bee\artifacts\mvdfrm\UnityEngine.AIModule.dll_1EBB63F243B19750.mvfrm
Library\Bee\artifacts\mvdfrm\UnityEngine.AndroidJNIModule.dll_04057BF24A8C050E.mvfrm
Library\Bee\artifacts\mvdfrm\UnityEngine.AnimationModule.dll_6F18CCFF686B9730.mvfrm
Library\Bee\artifacts\mvdfrm\UnityEngine.ARModule.dll_D82E28F5A0CEF619.mvfrm
Library\Bee\artifacts\mvdfrm\UnityEngine.AssetBundleModule.dll_01A198E6DBA9745E.mvfrm
Library\Bee\artifacts\mvdfrm\UnityEngine.AudioModule.dll_EAE34DFF1A23AC22.mvfrm
Library\Bee\artifacts\mvdfrm\UnityEngine.ClothModule.dll_51CBAAF9F4408B06.mvfrm
Library\Bee\artifacts\mvdfrm\UnityEngine.ClusterInputModule.dll_C1FB67A139EDBFF8.mvfrm
Library\Bee\artifacts\mvdfrm\UnityEngine.ClusterRendererModule.dll_DC55A2D5A7002789.mvfrm
Library\Bee\artifacts\mvdfrm\UnityEngine.ContentLoadModule.dll_9AB7F227AA2C1C4B.mvfrm
Library\Bee\artifacts\mvdfrm\UnityEngine.CoreModule.dll_3F9EA4F708C26BA7.mvfrm
Library\Bee\artifacts\mvdfrm\UnityEngine.CrashReportingModule.dll_E4D33889C6934D9F.mvfrm
Library\Bee\artifacts\mvdfrm\UnityEngine.DirectorModule.dll_8F4EA6361C18EB84.mvfrm
Library\Bee\artifacts\mvdfrm\UnityEngine.dll_E547EF6EF070CD3E.mvfrm
Library\Bee\artifacts\mvdfrm\UnityEngine.DSPGraphModule.dll_94A0079F8E79BCA5.mvfrm
Library\Bee\artifacts\mvdfrm\UnityEngine.GameCenterModule.dll_2E52C60D10CCF5FF.mvfrm
Library\Bee\artifacts\mvdfrm\UnityEngine.GIModule.dll_B6F7ACFFDF607F6A.mvfrm
Library\Bee\artifacts\mvdfrm\UnityEngine.GridModule.dll_1D0FC0E52117019E.mvfrm
Library\Bee\artifacts\mvdfrm\UnityEngine.HotReloadModule.dll_F0618B05439EB2B2.mvfrm
Library\Bee\artifacts\mvdfrm\UnityEngine.ImageConversionModule.dll_4847A0862924DF7D.mvfrm
Library\Bee\artifacts\mvdfrm\UnityEngine.IMGUIModule.dll_2342ED65E0554003.mvfrm
Library\Bee\artifacts\mvdfrm\UnityEngine.InputLegacyModule.dll_92E6B405739B2A4F.mvfrm
Library\Bee\artifacts\mvdfrm\UnityEngine.InputModule.dll_515915AF905BD0C6.mvfrm
Library\Bee\artifacts\mvdfrm\UnityEngine.JSONSerializeModule.dll_3C0CB5CDB502EB94.mvfrm
Library\Bee\artifacts\mvdfrm\UnityEngine.LocalizationModule.dll_004831F3D169B2F1.mvfrm
Library\Bee\artifacts\mvdfrm\UnityEngine.ParticleSystemModule.dll_37E581D634A4D92D.mvfrm
Library\Bee\artifacts\mvdfrm\UnityEngine.PerformanceReportingModule.dll_DF0814EE80516766.mvfrm
Library\Bee\artifacts\mvdfrm\UnityEngine.Physics2DModule.dll_BBBEBCF009688EC5.mvfrm
Library\Bee\artifacts\mvdfrm\UnityEngine.PhysicsModule.dll_0410AC7F59BB0F33.mvfrm
Library\Bee\artifacts\mvdfrm\UnityEngine.ProfilerModule.dll_C194DF6CB5727291.mvfrm
Library\Bee\artifacts\mvdfrm\UnityEngine.PropertiesModule.dll_5B8E054B83B85A3B.mvfrm
Library\Bee\artifacts\mvdfrm\UnityEngine.RuntimeInitializeOnLoadManagerInitializerModule.dll_BCAE299A2B8F098E.mvfrm
Library\Bee\artifacts\mvdfrm\UnityEngine.ScreenCaptureModule.dll_55F46352C96F17F6.mvfrm
Library\Bee\artifacts\mvdfrm\UnityEngine.SharedInternalsModule.dll_CC58DF5BA052DACD.mvfrm
Library\Bee\artifacts\mvdfrm\UnityEngine.SpriteMaskModule.dll_177F389D323C8B79.mvfrm
Library\Bee\artifacts\mvdfrm\UnityEngine.SpriteShapeModule.dll_1B02C641914BAC68.mvfrm
Library\Bee\artifacts\mvdfrm\UnityEngine.StreamingModule.dll_23ADBA4FB7F34E6E.mvfrm
Library\Bee\artifacts\mvdfrm\UnityEngine.SubstanceModule.dll_0058CE9903464C7C.mvfrm
Library\Bee\artifacts\mvdfrm\UnityEngine.SubsystemsModule.dll_822C9EFF0084738C.mvfrm
Library\Bee\artifacts\mvdfrm\UnityEngine.TerrainModule.dll_1E5727EE2F795821.mvfrm
Library\Bee\artifacts\mvdfrm\UnityEngine.TerrainPhysicsModule.dll_38602AA94DE7D3BA.mvfrm
Library\Bee\artifacts\mvdfrm\UnityEngine.TextCoreFontEngineModule.dll_3F214DFAA07FD545.mvfrm
Library\Bee\artifacts\mvdfrm\UnityEngine.TextCoreTextEngineModule.dll_8709846C30038E63.mvfrm
Library\Bee\artifacts\mvdfrm\UnityEngine.TextRenderingModule.dll_7F33D55D80A697EB.mvfrm
Library\Bee\artifacts\mvdfrm\UnityEngine.TilemapModule.dll_BD538F6F4736392A.mvfrm
Library\Bee\artifacts\mvdfrm\UnityEngine.TLSModule.dll_9E175A205CDDDB47.mvfrm
Library\Bee\artifacts\mvdfrm\UnityEngine.UIElementsModule.dll_866B006703B0AF83.mvfrm
Library\Bee\artifacts\mvdfrm\UnityEngine.UIModule.dll_1A2F021F9FF89CFC.mvfrm
Library\Bee\artifacts\mvdfrm\UnityEngine.UmbraModule.dll_65B7FA17A74A5795.mvfrm
Library\Bee\artifacts\mvdfrm\UnityEngine.UnityAnalyticsCommonModule.dll_7A46D2329A3A05C4.mvfrm
Library\Bee\artifacts\mvdfrm\UnityEngine.UnityAnalyticsModule.dll_5784F29FE0CC2B29.mvfrm
Library\Bee\artifacts\mvdfrm\UnityEngine.UnityConnectModule.dll_2FBE769A82EDEDDD.mvfrm
Library\Bee\artifacts\mvdfrm\UnityEngine.UnityCurlModule.dll_A2356E30D87F891D.mvfrm
Library\Bee\artifacts\mvdfrm\UnityEngine.UnityTestProtocolModule.dll_C5AD232BE9932C0B.mvfrm
Library\Bee\artifacts\mvdfrm\UnityEngine.UnityWebRequestAssetBundleModule.dll_9779D2772E0F04BA.mvfrm
Library\Bee\artifacts\mvdfrm\UnityEngine.UnityWebRequestAudioModule.dll_570468CD06BC31FE.mvfrm
Library\Bee\artifacts\mvdfrm\UnityEngine.UnityWebRequestModule.dll_59E6A830341979FC.mvfrm
Library\Bee\artifacts\mvdfrm\UnityEngine.UnityWebRequestTextureModule.dll_FFB36125ED461393.mvfrm
Library\Bee\artifacts\mvdfrm\UnityEngine.UnityWebRequestWWWModule.dll_51CBC9C81FC34ACF.mvfrm
Library\Bee\artifacts\mvdfrm\UnityEngine.VehiclesModule.dll_07119FB59642BB1F.mvfrm
Library\Bee\artifacts\mvdfrm\UnityEngine.VFXModule.dll_1EF5F28F334B44B4.mvfrm
Library\Bee\artifacts\mvdfrm\UnityEngine.VideoModule.dll_0FECD269DCB5C7C7.mvfrm
Library\Bee\artifacts\mvdfrm\UnityEngine.VirtualTexturingModule.dll_3FB2395571F31B85.mvfrm
Library\Bee\artifacts\mvdfrm\UnityEngine.VRModule.dll_6D0128A541B32274.mvfrm
Library\Bee\artifacts\mvdfrm\UnityEngine.WindModule.dll_B5ED801F99F8EA10.mvfrm
Library\Bee\artifacts\mvdfrm\UnityEngine.XRModule.dll_9FBFEBA9CAED6FD2.mvfrm
Library\Bee\artifacts\mvdfrm\UnityEditor.WindowsStandalone.Extensions.dll_470ECFA0E0A114E4.mvfrm
Library\Bee\artifacts\mvdfrm\Unity.Plastic.Antlr3.Runtime.dll_E340043392540AF9.mvfrm
Library\Bee\artifacts\mvdfrm\Unity.Plastic.Newtonsoft.Json.dll_41CE71F42A4FD22C.mvfrm
Library\Bee\artifacts\mvdfrm\Unity.VisualScripting.IonicZip.dll_BE5647D59BA90757.mvfrm
Library\Bee\artifacts\mvdfrm\Unity.VisualScripting.YamlDotNet.dll_73B4528AAC4BDD55.mvfrm
Library\Bee\artifacts\mvdfrm\Unity.VisualScripting.TextureAssets.dll_0AD27BDE6D193B4D.mvfrm
Library\Bee\artifacts\mvdfrm\Unity.VisualScripting.Antlr3.Runtime.dll_2521796BDD14ED74.mvfrm